year,temp
1950,53.825471405382785 
1955,55.28901029090597 
1960,53.982834204523165 
1965,54.157639212864666 
1970,54.35095007556258
1975,53.7835365227933 
1980,54.08143012749227 
1985,53.829128776316786
1990,55.77935732300246 
1995,53.981899749307004 
2000,53.952556954214685 